  <svg
    width="23"
    height="23"
    viewBox="0 0 32 32"
    fill="none"
    xmlns="http://www.w3.org/2000/svg"
  >
    <path
      d="M16 0C7.17725 0 0 7.17725 0 16C0 24.8228 7.17725 32 16 32C24.8228 32 32 24.8228 32 16C32 7.17725 24.8228 0 16 0Z"
      fill="#FF0F44"
    />
    <path
      d="M17.3333 24C17.3333 24.7363 16.7363 25.3333 16 25.3333C15.2637 25.3333 14.6667 24.7363 14.6667 24C14.6667 23.2637 15.2637 22.6667 16 22.6667C16.7363 22.6667 17.3333 23.2637 17.3333 24Z"
      fill="#ECEFF1"
    />
    <path
      d="M17.3333 20C17.3333 20.7358 16.7361 21.3333 16 21.3333C15.2639 21.3333 14.6667 20.7358 14.6667 20V9.33325C14.6667 8.59717 15.2639 8 16 8C16.7361 8 17.3333 8.59717 17.3333 9.33325V20Z"
      fill="#FAFAFA"
    />
  </svg>